%YAML 1.1
%TAG !u! tag:unity3d.com,2011:
--- !u!114 &11400000
MonoBehaviour:
  m_ObjectHideFlags: 0
  m_CorrespondingSourceObject: {fileID: 0}
  m_PrefabInstance: {fileID: 0}
  m_PrefabAsset: {fileID: 0}
  m_GameObject: {fileID: 0}
  m_Enabled: 1
  m_EditorHideFlags: 0
  m_Script: {fileID: 11500000, guid: 62f9f9a81a284eae9d950e663ac2a169, type: 3}
  m_Name: Banana
  m_EditorClassIdentifier: 
  id: 42
  monsterName: Banana
  mainMonsterSprite: {fileID: 21300000, guid: 48d838141e974934f9c5172d0209326f, type: 3}
  iconMonsterSprite: {fileID: 21300000, guid: 62b640fca4bebf546b984fdc0c4ce9d1, type: 3}
  cardMonsterSprite: {fileID: 21300000, guid: 1415192c8e2613e41985a61c6e4f28b7, type: 3}
  adToUnlock: 0
  textColor: {r: 0.26666668, g: 0.30980393, b: 0.7019608, a: 1}
  clip: {fileID: 8300000, guid: b33552746e8c404498386d302e2883ee, type: 3}
  iosClip: {fileID: 0}
