%YAML 1.1
%TAG !u! tag:unity3d.com,2011:
--- !u!114 &11400000
MonoBehaviour:
  m_ObjectHideFlags: 0
  m_CorrespondingSourceObject: {fileID: 0}
  m_PrefabInstance: {fileID: 0}
  m_PrefabAsset: {fileID: 0}
  m_GameObject: {fileID: 0}
  m_Enabled: 1
  m_EditorHideFlags: 0
  m_Script: {fileID: 11500000, guid: 62f9f9a81a284eae9d950e663ac2a169, type: 3}
  m_Name: Caz
  m_EditorClassIdentifier: 
  id: 38
  monsterName: Caz
  mainMonsterSprite: {fileID: 21300000, guid: f5b9d1791b77fd040ba13f052a6153d0, type: 3}
  iconMonsterSprite: {fileID: 21300000, guid: 51095d7aa064d6e47b89967581e0b598, type: 3}
  cardMonsterSprite: {fileID: 21300000, guid: 2afe4e9a706fb214cbc4bc4c2f4b6c4f, type: 3}
  adToUnlock: 0
  textColor: {r: 0.3254902, g: 0.14901961, b: 0.7294118, a: 1}
  clip: {fileID: 8300000, guid: f90aa02d4874a9f40a95de6c7cd36227, type: 3}
  iosClip: {fileID: 0}
