%YAML 1.1
%TAG !u! tag:unity3d.com,2011:
--- !u!114 &11400000
MonoBehaviour:
  m_ObjectHideFlags: 0
  m_CorrespondingSourceObject: {fileID: 0}
  m_PrefabInstance: {fileID: 0}
  m_PrefabAsset: {fileID: 0}
  m_GameObject: {fileID: 0}
  m_Enabled: 1
  m_EditorHideFlags: 0
  m_Script: {fileID: 11500000, guid: 62f9f9a81a284eae9d950e663ac2a169, type: 3}
  m_Name: Figure
  m_EditorClassIdentifier: 
  id: 25
  monsterName: Figure
  mainMonsterSprite: {fileID: 21300000, guid: f23cc65712fa3414fae447c0ca152328, type: 3}
  iconMonsterSprite: {fileID: 21300000, guid: 0c7f4b19673ec7c47a6f9a460fc23250, type: 3}
  cardMonsterSprite: {fileID: 21300000, guid: f43ce907978898e47838cd426aeeb547, type: 3}
  adToUnlock: 1
  textColor: {r: 0.25882354, g: 0.6862745, b: 0.87843144, a: 1}
  clip: {fileID: 8300000, guid: a43973ba1f9c4ae44ae137ca2b21471e, type: 3}
  iosClip: {fileID: 0}
