%YAML 1.1
%TAG !u! tag:unity3d.com,2011:
--- !u!114 &11400000
MonoBehaviour:
  m_ObjectHideFlags: 0
  m_CorrespondingSourceObject: {fileID: 0}
  m_PrefabInstance: {fileID: 0}
  m_PrefabAsset: {fileID: 0}
  m_GameObject: {fileID: 0}
  m_Enabled: 1
  m_EditorHideFlags: 0
  m_Script: {fileID: 11500000, guid: 62f9f9a81a284eae9d950e663ac2a169, type: 3}
  m_Name: Slow Snaily
  m_EditorClassIdentifier: 
  id: 7
  monsterName: Slow Snaily
  mainMonsterSprite: {fileID: 21300000, guid: 3feb2ee65027d9a49a388bc2f4cfca28, type: 3}
  iconMonsterSprite: {fileID: 21300000, guid: 8f37745d4896b3d44a42e005f3b61308, type: 3}
  cardMonsterSprite: {fileID: 21300000, guid: d44916519c86cef41877be7f06cf1013, type: 3}
  adToUnlock: 0
  textColor: {r: 0.6509804, g: 0.32941177, b: 0.8117648, a: 1}
  clip: {fileID: 8300000, guid: 2f841c6256a206f498372e1fd5d38826, type: 3}
  iosClip: {fileID: 0}
