%YAML 1.1
%TAG !u! tag:unity3d.com,2011:
--- !u!114 &11400000
MonoBehaviour:
  m_ObjectHideFlags: 0
  m_CorrespondingSourceObject: {fileID: 0}
  m_PrefabInstance: {fileID: 0}
  m_PrefabAsset: {fileID: 0}
  m_GameObject: {fileID: 0}
  m_Enabled: 1
  m_EditorHideFlags: 0
  m_Script: {fileID: 11500000, guid: 62f9f9a81a284eae9d950e663ac2a169, type: 3}
  m_Name: Spimothy
  m_EditorClassIdentifier: 
  id: 26
  monsterName: Spimothy
  mainMonsterSprite: {fileID: 21300000, guid: 44c0919dcdc593e4ab4c6b2580fb064f, type: 3}
  iconMonsterSprite: {fileID: 21300000, guid: 39ca404494b9c5a4fa15458791f0f57f, type: 3}
  cardMonsterSprite: {fileID: 21300000, guid: c3ff6786873890f44b15538c6d93aa7d, type: 3}
  adToUnlock: 0
  textColor: {r: 0.20392159, g: 0.6431373, b: 0.49803925, a: 1}
  clip: {fileID: 8300000, guid: 8920eb3464a1ca847b74fe81c8c800dc, type: 3}
  iosClip: {fileID: 0}
