%YAML 1.1
%TAG !u! tag:unity3d.com,2011:
--- !u!114 &11400000
MonoBehaviour:
  m_ObjectHideFlags: 0
  m_CorrespondingSourceObject: {fileID: 0}
  m_PrefabInstance: {fileID: 0}
  m_PrefabAsset: {fileID: 0}
  m_GameObject: {fileID: 0}
  m_Enabled: 1
  m_EditorHideFlags: 0
  m_Script: {fileID: 11500000, guid: 62f9f9a81a284eae9d950e663ac2a169, type: 3}
  m_Name: Secret Troll
  m_EditorClassIdentifier: 
  id: 23
  monsterName: Secret Troll
  mainMonsterSprite: {fileID: 21300000, guid: 423b5b236faf0d8409dd43fc5b72b4d8, type: 3}
  iconMonsterSprite: {fileID: 21300000, guid: 423b5b236faf0d8409dd43fc5b72b4d8, type: 3}
  cardMonsterSprite: {fileID: 21300000, guid: ac5074847be27c34cbc2e864d4431bdd, type: 3}
  adToUnlock: 0
  textColor: {r: 0.9960785, g: 0.9568628, b: 0.8862746, a: 1}
  clip: {fileID: 8300000, guid: 7748c715259720c4fbc733f05d01aec3, type: 3}
  iosClip: {fileID: 0}
