%YAML 1.1
%TAG !u! tag:unity3d.com,2011:
--- !u!114 &11400000
MonoBehaviour:
  m_ObjectHideFlags: 0
  m_CorrespondingSourceObject: {fileID: 0}
  m_PrefabInstance: {fileID: 0}
  m_PrefabAsset: {fileID: 0}
  m_GameObject: {fileID: 0}
  m_Enabled: 1
  m_EditorHideFlags: 0
  m_Script: {fileID: 11500000, guid: bbb281ee3bf0b054c82ac2347e9e782c, type: 3}
  m_Name: Font
  m_EditorClassIdentifier: 
  m_GroupName: Font
  m_Data:
    m_SerializedData: []
  m_GUID: 71c8dea0371715a4d98767e9f585b384
  m_SerializeEntries:
  - m_GUID: 3ca392b8ec7c49a4b82e35bacde37b09
    m_Address: Font/LondrinaSolid-Black SDF
    m_ReadOnly: 0
    m_SerializedLabels: []
  - m_GUID: 53f6445536e3d11469e5d5df36f23bbd
    m_Address: Font/LondrinaSolid-Light SDF
    m_ReadOnly: 0
    m_SerializedLabels: []
  - m_GUID: db4e08e3563102744a5ef35607f46e5e
    m_Address: Font/LondrinaSolid-Regular SDF
    m_ReadOnly: 0
    m_SerializedLabels: []
  - m_GUID: c0c107c0be9bf4b48821a05664a6e9cf
    m_Address: Font/LondrinaSolid-Thin SDF
    m_ReadOnly: 0
    m_SerializedLabels: []
  - m_GUID: 630b136d96368ae4394d1b054af96472
    m_Address: Font/Roboto-Regular SDF
    m_ReadOnly: 0
    m_SerializedLabels: []
  - m_GUID: 33a366408a2451340bfe5b5f60049a7d
    m_Address: Assets/Source/Resources_moved/Font/LondrinaSolid-Thin.ttf
    m_ReadOnly: 0
    m_SerializedLabels: []
  - m_GUID: 6da54c0cb01572241a4bb88db91ffe67
    m_Address: Assets/Source/Resources_moved/Font/LondrinaSolid-Regular.ttf
    m_ReadOnly: 0
    m_SerializedLabels: []
  - m_GUID: 73052f5efa9cfde4eb19ac54eb7b2728
    m_Address: Assets/Source/Resources_moved/Font/LondrinaSolid-Light.ttf
    m_ReadOnly: 0
    m_SerializedLabels: []
  - m_GUID: ed4e6e061f0675a4f91443a6095508cc
    m_Address: Assets/Source/Resources_moved/Font/Roboto-Regular.ttf
    m_ReadOnly: 0
    m_SerializedLabels: []
  - m_GUID: 4d4a933504f0ceb479cac6c84abcaba9
    m_Address: Assets/Source/Resources_moved/Font/LondrinaSolid-Black.ttf
    m_ReadOnly: 0
    m_SerializedLabels: []
  m_ReadOnly: 0
  m_Settings: {fileID: 11400000, guid: e3ddc56fe8f36c5478becb1955ed6806, type: 2}
  m_SchemaSet:
    m_Schemas:
    - {fileID: 11400000, guid: 903abf387e7197d4a8b7badb25a217d4, type: 2}
    - {fileID: 11400000, guid: dba32be575a1daa41be9a73c024f5abb, type: 2}
