%YAML 1.1
%TAG !u! tag:unity3d.com,2011:
--- !u!114 &11400000
MonoBehaviour:
  m_ObjectHideFlags: 0
  m_CorrespondingSourceObject: {fileID: 0}
  m_PrefabInstance: {fileID: 0}
  m_PrefabAsset: {fileID: 0}
  m_GameObject: {fileID: 0}
  m_Enabled: 1
  m_EditorHideFlags: 0
  m_Script: {fileID: 11500000, guid: 62f9f9a81a284eae9d950e663ac2a169, type: 3}
  m_Name: Mack Mack
  m_EditorClassIdentifier: 
  id: 96
  monsterName: Mack Mack
  mainMonsterSprite: {fileID: 21300000, guid: 7dba7eaea13333d40bf4f687abfdd9ef, type: 3}
  iconMonsterSprite: {fileID: 21300000, guid: 7dba7eaea13333d40bf4f687abfdd9ef, type: 3}
  cardMonsterSprite: {fileID: 21300000, guid: ac5074847be27c34cbc2e864d4431bdd, type: 3}
  adToUnlock: 0
  textColor: {r: 1, g: 1, b: 1, a: 1}
  clip: {fileID: 8300000, guid: ce8e4b4e045ad734789b83be299a3a74, type: 3}
  iosClip: {fileID: 0}
