%YAML 1.1
%TAG !u! tag:unity3d.com,2011:
--- !u!114 &11400000
MonoBehaviour:
  m_ObjectHideFlags: 0
  m_CorrespondingSourceObject: {fileID: 0}
  m_PrefabInstance: {fileID: 0}
  m_PrefabAsset: {fileID: 0}
  m_GameObject: {fileID: 0}
  m_Enabled: 1
  m_EditorHideFlags: 0
  m_Script: {fileID: 11500000, guid: 62f9f9a81a284eae9d950e663ac2a169, type: 3}
  m_Name: X-Wolf
  m_EditorClassIdentifier: 
  id: 108
  monsterName: X-Wolf
  mainMonsterSprite: {fileID: 21300000, guid: 099c8be0124b139438c6dfd54489ed06, type: 3}
  iconMonsterSprite: {fileID: 21300000, guid: 099c8be0124b139438c6dfd54489ed06, type: 3}
  cardMonsterSprite: {fileID: 21300000, guid: ac5074847be27c34cbc2e864d4431bdd, type: 3}
  adToUnlock: 0
  textColor: {r: 1, g: 1, b: 1, a: 1}
  clip: {fileID: 8300000, guid: 0741a4eb29992fc409666c0bbd4038ec, type: 3}
  iosClip: {fileID: 0}
