%YAML 1.1
%TAG !u! tag:unity3d.com,2011:
--- !u!1045 &1
EditorBuildSettings:
  m_ObjectHideFlags: 0
  serializedVersion: 2
  m_Scenes:
  - enabled: 0
    path: Assets/Source/Scenes/Loading.unity
    guid: 2cda990e2423bbf4892e6590ba056729
  m_configObjects:
    com.unity.addressableassets: {fileID: 11400000, guid: 7319511984dcfbf47b7dd7d27293bd0b, type: 2}
