%YAML 1.1
%TAG !u! tag:unity3d.com,2011:
--- !u!114 &11400000
MonoBehaviour:
  m_ObjectHideFlags: 0
  m_CorrespondingSourceObject: {fileID: 0}
  m_PrefabInstance: {fileID: 0}
  m_PrefabAsset: {fileID: 0}
  m_GameObject: {fileID: 0}
  m_Enabled: 1
  m_EditorHideFlags: 0
  m_Script: {fileID: 11500000, guid: 62f9f9a81a284eae9d950e663ac2a169, type: 3}
  m_Name: Johnjester
  m_EditorClassIdentifier: 
  id: 72
  monsterName: Johnjester
  mainMonsterSprite: {fileID: 21300000, guid: 534f06d86380fbf4c8726a6d0ab2ef66, type: 3}
  iconMonsterSprite: {fileID: 21300000, guid: 534f06d86380fbf4c8726a6d0ab2ef66, type: 3}
  cardMonsterSprite: {fileID: 21300000, guid: e4c1e1439da839c49b990dfb8e382280, type: 3}
  adToUnlock: 0
  textColor: {r: 0.97647065, g: 0.5176471, b: 0.08235294, a: 1}
  clip: {fileID: 8300000, guid: 71f051f7c18e8f744afada16c168ddb4, type: 3}
  iosClip: {fileID: 0}
